{
  "_class": "group",
  "do_objectID": "B88F3BAD-3FC1-4ABB-B878-E3D2A9B89BE3",
  "exportOptions": {
    "_class": "exportOptions",
    "exportFormats": [
    ],
    "includedLayerIds": [
    ],
    "layerOptions": 0,
    "shouldTrim": false
  },
  "frame": {
    "_class": "rect",
    "constrainProportions": false,
    "height": 760,
    "width": 220,
    "x": 0,
    "y": 40
  },
  "hasClickThrough": false,
  "isFlippedHorizontal": false,
  "isFlippedVertical": false,
  "isLocked": false,
  "isVisible": true,
  "layerListExpandedType": 0,
  "layers": [
    {
      "class": "shapeGroup",
      "id": "D04836CA-CD09-480E-B5E0-7FD9CB27DAB5"
    },
    {
      "class": "group",
      "id": "D7461AE8-01A0-4BA1-AAC7-9B4C120E99A8"
    },
    {
      "class": "group",
      "id": "056E5274-4085-498B-82B2-23EAE008B408"
    }
  ],
  "name": "contextual-sidebar",
  "nameIsFixed": true,
  "resizingConstraint": 18,
  "resizingType": 0,
  "rotation": 0,
  "shouldBreakMaskChain": false,
  "style": {
    "_class": "style",
    "endDecorationType": 0,
    "miterLimit": 10,
    "startDecorationType": 0
  }
}