{
  "_class": "group",
  "do_objectID": "DA767BE1-B2A2-4C88-A939-BAA955AAC969",
  "exportOptions": {
    "_class": "exportOptions",
    "exportFormats": [
    ],
    "includedLayerIds": [
    ],
    "layerOptions": 0,
    "shouldTrim": false
  },
  "frame": {
    "_class": "rect",
    "constrainProportions": false,
    "height": 32,
    "width": 521,
    "x": 971,
    "y": 4
  },
  "hasClickThrough": false,
  "isFlippedHorizontal": false,
  "isFlippedVertical": false,
  "isLocked": false,
  "isVisible": true,
  "layerListExpandedType": 2,
  "layers": [
    {
      "class": "symbolInstance",
      "id": "1AAD76D6-0D78-4DEF-83B6-85168E3A20F2"
    },
    {
      "class": "symbolInstance",
      "id": "49B7ECFB-66E7-43A4-AF6A-49132287873B"
    },
    {
      "class": "symbolInstance",
      "id": "2EAE22EC-8FA8-4865-8C1F-7918A0FB85B4"
    },
    {
      "class": "symbolInstance",
      "id": "11B967EB-D76A-4BFE-A94C-F48F2FC49FAF"
    },
    {
      "class": "symbolInstance",
      "id": "B37D6E63-DED5-4E84-939A-726C03D118BE"
    },
    {
      "class": "symbolInstance",
      "id": "D7832F03-63AE-4530-991F-97CA7427845D"
    }
  ],
  "name": "right-aligned",
  "nameIsFixed": true,
  "resizingConstraint": 28,
  "resizingType": 0,
  "rotation": 0,
  "shouldBreakMaskChain": false,
  "style": {
    "_class": "style",
    "endDecorationType": 0,
    "miterLimit": 10,
    "startDecorationType": 0
  }
}