{
  "_class": "shapePath",
  "booleanOperation": -1,
  "do_objectID": "ECE65B43-75CB-48E7-AE8E-E45046039B11",
  "edited": true,
  "exportOptions": {
    "_class": "exportOptions",
    "exportFormats": [
    ],
    "includedLayerIds": [
    ],
    "layerOptions": 0,
    "shouldTrim": false
  },
  "frame": {
    "_class": "rect",
    "constrainProportions": false,
    "height": 9.126722332650177,
    "width": 6.597835051546381,
    "x": 3.552713678800503e-15,
    "y": -1.373471783041431e-16
  },
  "isFlippedHorizontal": false,
  "isFlippedVertical": false,
  "isLocked": false,
  "isVisible": true,
  "layerListExpandedType": 0,
  "name": "Fill-22-path",
  "nameIsFixed": false,
  "path": {
    "_class": "path",
    "isClosed": true,
    "pointRadiusBehaviour": 0,
    "points": [
      {
        "_class": "curvePoint",
        "cornerRadius": 0,
        "curveFrom": "{1, 1}",
        "curveMode": 1,
        "curveTo": "{1, 1}",
        "hasCurveFrom": false,
        "hasCurveTo": false,
        "point": "{1, 1}"
      },
      {
        "_class": "curvePoint",
        "cornerRadius": 0,
        "curveFrom": "{0, 1}",
        "curveMode": 1,
        "curveTo": "{0, 1}",
        "hasCurveFrom": false,
        "hasCurveTo": false,
        "point": "{0, 1}"
      },
      {
        "_class": "curvePoint",
        "cornerRadius": 0,
        "curveFrom": "{0.45186785588979378, -0.012392604256652015}",
        "curveMode": 4,
        "curveTo": "{0.42976381733237307, 0.037157649216147698}",
        "hasCurveFrom": true,
        "hasCurveTo": false,
        "point": "{0.42976381733237307, 0.037157649216147698}"
      },
      {
        "_class": "curvePoint",
        "cornerRadius": 0,
        "curveFrom": "{0.57025464886525223, 0.037157649216147698}",
        "curveMode": 4,
        "curveTo": "{0.54815061030783152, -0.012379161431510181}",
        "hasCurveFrom": false,
        "hasCurveTo": true,
        "point": "{0.57025464886525223, 0.037157649216147698}"
      },
      {
        "_class": "curvePoint",
        "cornerRadius": 0,
        "curveFrom": "{1, 1}",
        "curveMode": 1,
        "curveTo": "{1, 1}",
        "hasCurveFrom": false,
        "hasCurveTo": false,
        "point": "{1, 1}"
      }
    ]
  },
  "resizingConstraint": 63,
  "resizingType": 0,
  "rotation": 0,
  "shouldBreakMaskChain": false
}