{
  "_class": "group",
  "do_objectID": "B71E21A9-8C25-43E9-BFAF-A0BF61E19E7B",
  "exportOptions": {
    "_class": "exportOptions",
    "exportFormats": [
    ],
    "includedLayerIds": [
    ],
    "layerOptions": 0,
    "shouldTrim": false
  },
  "frame": {
    "_class": "rect",
    "constrainProportions": false,
    "height": 28,
    "width": 96,
    "x": 0.5,
    "y": 0
  },
  "hasClickThrough": false,
  "isFlippedHorizontal": false,
  "isFlippedVertical": false,
  "isLocked": false,
  "isVisible": false,
  "layerListExpandedType": 0,
  "layers": [
    {
      "class": "shapeGroup",
      "id": "ED56900D-43BC-42DF-B97D-22090D601044"
    },
    {
      "class": "shapeGroup",
      "id": "FD6A0B59-CF7B-42A5-AA8A-4DD1B8321C4A"
    },
    {
      "class": "text",
      "id": "21CD23AC-6F35-4AF6-ABB2-CD4D1874CF7F"
    }
  ],
  "name": "global-components/tooltips/top",
  "nameIsFixed": false,
  "resizingConstraint": 63,
  "resizingType": 0,
  "rotation": 0,
  "shouldBreakMaskChain": false,
  "style": {
    "_class": "style",
    "endDecorationType": 0,
    "miterLimit": 10,
    "startDecorationType": 0
  }
}