{
  "_class": "group",
  "do_objectID": "FE09714D-4C42-4782-A19A-C60792A1E53D",
  "exportOptions": {
    "_class": "exportOptions",
    "exportFormats": [
    ],
    "includedLayerIds": [
    ],
    "layerOptions": 0,
    "shouldTrim": false
  },
  "frame": {
    "_class": "rect",
    "constrainProportions": false,
    "height": 28,
    "width": 527,
    "x": 607,
    "y": 1062
  },
  "hasClickThrough": false,
  "isFlippedHorizontal": false,
  "isFlippedVertical": false,
  "isLocked": false,
  "isVisible": true,
  "layerListExpandedType": 2,
  "layers": [
    {
      "class": "shapeGroup",
      "id": "CFC166A9-9AD7-441F-A98D-844CEF5327B7"
    },
    {
      "class": "shapeGroup",
      "id": "14A703BB-63A1-4A11-88EF-C6FFA518BDC0"
    },
    {
      "class": "shapeGroup",
      "id": "73063972-C8EE-4330-8579-1B6A0EDFF9EF"
    },
    {
      "class": "shapeGroup",
      "id": "68152EB4-D43B-4E9D-AF38-CEBB34DFFD84"
    },
    {
      "class": "text",
      "id": "46930F88-6943-4CDC-B6F5-1B98AD691089"
    }
  ],
  "name": "new_epic copy 13",
  "nameIsFixed": true,
  "resizingConstraint": 63,
  "resizingType": 0,
  "rotation": 0,
  "shouldBreakMaskChain": false,
  "style": {
    "_class": "style",
    "endDecorationType": 0,
    "miterLimit": 10,
    "startDecorationType": 0
  }
}