{
  "_class": "group",
  "do_objectID": "9C5ECBC8-4007-4D26-8E75-EB4A559FF5B0",
  "exportOptions": {
    "_class": "exportOptions",
    "exportFormats": [
    ],
    "includedLayerIds": [
    ],
    "layerOptions": 0,
    "shouldTrim": false
  },
  "frame": {
    "_class": "rect",
    "constrainProportions": false,
    "height": 82,
    "width": 1295,
    "x": 344,
    "y": 71
  },
  "hasClickThrough": false,
  "isFlippedHorizontal": false,
  "isFlippedVertical": false,
  "isLocked": false,
  "isVisible": true,
  "layerListExpandedType": 0,
  "layers": [
    {
      "class": "shapeGroup",
      "id": "A04BA8A1-406F-4AB2-9736-D368623128D0"
    },
    {
      "class": "shapeGroup",
      "id": "F87B5438-240D-4A56-83F0-9B0396E7A281"
    },
    {
      "class": "symbolInstance",
      "id": "3E8D4BBC-B1B1-45F4-AAE9-81B4717AB0FC"
    },
    {
      "class": "symbolInstance",
      "id": "8AC88889-BF14-4AF6-A6ED-92A7254DDCFE"
    },
    {
      "class": "symbolInstance",
      "id": "801A5486-C0FE-42C8-93E9-042688271577"
    },
    {
      "class": "symbolInstance",
      "id": "CD1835BF-E875-4B6B-8113-7D686DBAF230"
    },
    {
      "class": "shapeGroup",
      "id": "FBF8C7B6-AF80-4E20-8384-6076BA4A228F"
    },
    {
      "class": "symbolInstance",
      "id": "9DCF043B-B963-43B2-9604-7459234F32D9"
    },
    {
      "class": "symbolInstance",
      "id": "2900C8CE-942A-47A7-9B48-ADC39DB9B729"
    },
    {
      "class": "symbolInstance",
      "id": "B328BA8B-3F90-4084-9AD1-FCFC708A265C"
    },
    {
      "class": "symbolInstance",
      "id": "A1D10E0D-31A8-4E9A-801E-DA149DF690C8"
    },
    {
      "class": "symbolInstance",
      "id": "7A22DEAE-EBBE-4D43-9C56-3541BE6BEA21"
    },
    {
      "class": "symbolInstance",
      "id": "4CB15EC5-D6C2-4F62-BEC8-8F6D68BC9D24"
    },
    {
      "class": "symbolInstance",
      "id": "491D06F4-15A4-45A6-9C12-42C0DF294E89"
    },
    {
      "class": "symbolInstance",
      "id": "B48682F5-8636-4978-9268-5F9E0470BD6E"
    },
    {
      "class": "symbolInstance",
      "id": "AF54B9ED-EFCF-46E0-ADBD-94A208220867"
    },
    {
      "class": "symbolInstance",
      "id": "36962119-2AC7-437C-829E-C4132E7DA697"
    },
    {
      "class": "symbolInstance",
      "id": "3962839C-31DD-4CB0-B714-D2F8A3363117"
    },
    {
      "class": "symbolInstance",
      "id": "3A7E9B0F-A886-45B0-A323-5DB0614D4558"
    },
    {
      "class": "symbolInstance",
      "id": "E8ED241E-6A4B-4AEA-9E8F-0AA4783CF1D4"
    },
    {
      "class": "symbolInstance",
      "id": "E8A81C00-C0FF-4E8F-898B-B488D5D84CCF"
    },
    {
      "class": "symbolInstance",
      "id": "5E5F8ED0-2B89-4D67-9384-E32467060BB1"
    },
    {
      "class": "symbolInstance",
      "id": "91E91623-7C21-4B7A-BAC2-CD3970BE717E"
    },
    {
      "class": "symbolInstance",
      "id": "1EB871E7-0299-4801-AC72-177D54CAD327"
    },
    {
      "class": "symbolInstance",
      "id": "631F9C2A-4575-4B85-BFE2-E6FF22FC0D0C"
    },
    {
      "class": "symbolInstance",
      "id": "07097B91-D772-4B24-BB77-13B1474CD01B"
    },
    {
      "class": "symbolInstance",
      "id": "3EEFD4A6-D139-4DAC-A1D8-BFB7D7E39B2B"
    },
    {
      "class": "symbolInstance",
      "id": "66A6B262-17BA-4CB5-B76D-63C79C1E6B41"
    },
    {
      "class": "symbolInstance",
      "id": "A97E58A2-3DE4-4D4A-B2ED-2E8B609DAB70"
    },
    {
      "class": "symbolInstance",
      "id": "A6AA5386-8BC4-47BC-AFCD-77E1EA9A8F66"
    },
    {
      "class": "symbolInstance",
      "id": "AE5387A2-5A0D-4069-B391-8A97136C2BB6"
    },
    {
      "class": "symbolInstance",
      "id": "7B6B164D-625C-464B-8C10-3376678C8F22"
    },
    {
      "class": "symbolInstance",
      "id": "9E32E0B3-4653-4207-99A3-DF498D7C7F86"
    },
    {
      "class": "symbolInstance",
      "id": "7FB41758-95E4-4D9B-A4BB-42E7D4C89440"
    },
    {
      "class": "symbolInstance",
      "id": "079B78CE-BC4B-447F-8F28-E914586C07CA"
    },
    {
      "class": "symbolInstance",
      "id": "51DBCABE-A6FB-4F80-A4F5-0CB6EC4879B3"
    },
    {
      "class": "symbolInstance",
      "id": "A30BEBFD-037A-4530-B980-346AC5CCA098"
    },
    {
      "class": "symbolInstance",
      "id": "22A6BE01-9133-4AC0-A18F-416CD4FD3B0B"
    },
    {
      "class": "symbolInstance",
      "id": "1756623A-A19D-4AE9-BA2A-14822EC0D227"
    },
    {
      "class": "symbolInstance",
      "id": "43B8C7FE-A9A5-484B-BBE6-1C7A84175F7B"
    },
    {
      "class": "symbolInstance",
      "id": "C104AA01-3BF6-4D59-966B-BCF65AD0D1F9"
    },
    {
      "class": "symbolInstance",
      "id": "54DA5890-4A39-4E1F-BC17-D8AAAF67CC3B"
    },
    {
      "class": "symbolInstance",
      "id": "8D462BEA-A1B7-4EAA-89E7-353DD2B5A3F5"
    },
    {
      "class": "symbolInstance",
      "id": "51C15137-8F4A-47BB-A800-4E5A34CB5A7F"
    },
    {
      "class": "symbolInstance",
      "id": "27EB3772-C7CF-4D05-8298-F6C40A4B1A6F"
    },
    {
      "class": "symbolInstance",
      "id": "A4B8D583-6B0B-46AE-924C-D1C517A9AD71"
    },
    {
      "class": "symbolInstance",
      "id": "2F34FD57-4999-4CEC-8BC3-7CA15340E8AE"
    },
    {
      "class": "symbolInstance",
      "id": "2B881920-B36C-4D88-B99D-F254FD61065D"
    },
    {
      "class": "symbolInstance",
      "id": "9FD9186E-32AC-4B6D-BD63-689D03DD6FBE"
    },
    {
      "class": "symbolInstance",
      "id": "4D91B8F4-7375-408B-9E56-A0B00C2125F7"
    },
    {
      "class": "symbolInstance",
      "id": "801A564F-BFCF-473D-B05B-CB612EB4BACA"
    },
    {
      "class": "symbolInstance",
      "id": "9872E71A-5C5E-4CCE-B9EF-6903810F0BA4"
    },
    {
      "class": "symbolInstance",
      "id": "AB828CC3-E727-4EBE-96F1-E15D4F2E14BD"
    },
    {
      "class": "symbolInstance",
      "id": "132EB851-3153-41E5-96CF-8C410856A63A"
    },
    {
      "class": "symbolInstance",
      "id": "149CE06B-F25C-4DB0-828A-9FD7F442103E"
    },
    {
      "class": "symbolInstance",
      "id": "2F4B78B3-119E-401D-9517-794618C7EB80"
    },
    {
      "class": "symbolInstance",
      "id": "EA1E67EA-5166-4ECD-AF21-29F22559D6C4"
    },
    {
      "class": "symbolInstance",
      "id": "DA38A60D-5AB1-46E7-B4E9-52709FA23B39"
    },
    {
      "class": "symbolInstance",
      "id": "420FD9BE-C45F-448E-89E1-3F7E80BDE77C"
    },
    {
      "class": "symbolInstance",
      "id": "DB405569-DEBA-4224-BA8E-2E441D3ABFDB"
    },
    {
      "class": "symbolInstance",
      "id": "451A3FB0-69FF-4875-B0D2-3422A73CCF09"
    }
  ],
  "name": "timeline",
  "nameIsFixed": true,
  "resizingConstraint": 63,
  "resizingType": 0,
  "rotation": 0,
  "shouldBreakMaskChain": false,
  "style": {
    "_class": "style",
    "endDecorationType": 0,
    "miterLimit": 10,
    "startDecorationType": 0
  }
}