{
  "_class": "group",
  "do_objectID": "5D0FDB45-8302-4152-A662-EC31871015EE",
  "exportOptions": {
    "_class": "exportOptions",
    "exportFormats": [
    ],
    "includedLayerIds": [
    ],
    "layerOptions": 0,
    "shouldTrim": false
  },
  "frame": {
    "_class": "rect",
    "constrainProportions": false,
    "height": 50,
    "width": 111,
    "x": 0,
    "y": 0
  },
  "hasClickThrough": false,
  "isFlippedHorizontal": false,
  "isFlippedVertical": false,
  "isLocked": false,
  "isVisible": true,
  "layerListExpandedType": 0,
  "layers": [
    {
      "class": "shapeGroup",
      "id": "9F124CD4-C69D-49C3-865F-2EEC5AAAA200"
    },
    {
      "class": "shapeGroup",
      "id": "95E015B8-1E62-4E92-B7D5-2FFD83E1E633"
    },
    {
      "class": "shapeGroup",
      "id": "A647C42C-3ED8-406A-892C-05F3AAF756E3"
    },
    {
      "class": "shapeGroup",
      "id": "42740ABE-4F7D-4398-AA56-8AFCC42CC8A0"
    },
    {
      "class": "shapeGroup",
      "id": "3C8C2B1C-BE09-4DB1-86CF-ED191C56CE3B"
    },
    {
      "class": "group",
      "id": "9F090BD9-272B-4F0C-836E-B6A90512060E"
    },
    {
      "class": "text",
      "id": "C5F9763B-D7C1-40FC-A6DF-A23083175256"
    }
  ],
  "name": "discussion",
  "nameIsFixed": true,
  "resizingConstraint": 41,
  "resizingType": 1,
  "rotation": 0,
  "shouldBreakMaskChain": false,
  "style": {
    "_class": "style",
    "endDecorationType": 0,
    "miterLimit": 10,
    "startDecorationType": 0
  }
}